{
  "project_info": {
    "project_number": "74901966000",
    "firebase_url": "https://ping-7f71d.firebaseio.com",
    "project_id": "ping-7f71d",
    "storage_bucket": "ping-7f71d.appspot.com"
  },
  "client": [
    {
      "client_info": {
        "mobilesdk_app_id": "1:74901966000:android:b2e9802592539659",
        "android_client_info": {
          "package_name": "com.grupo6.ping"
        }
      },
      "oauth_client": [
        {
          "client_id": "74901966000-pgnnhlognkg42549it2uus3jn7ne75nf.apps.googleusercontent.com",
          "client_type": 3
        }
      ],
      "api_key": [
        {
          "current_key": "AIzaSyBJzvp8IVIMxgZI7CN5XtSMc4uJcFv6nbk"
        }
      ],
      "services": {
        "analytics_service": {
          "status": 1
        },
        "appinvite_service": {
          "status": 1,
          "other_platform_oauth_client": []
        },
        "ads_service": {
          "status": 2
        }
      }
    }
  ],
  "configuration_version": "1"
}